[
    {
        "model": "boxes.box",
        "pk": 1,
        "fields": {
            "content": "Welcome to LibreOrganize!"
        }
    },
    {
        "model": "boxes.box",
        "pk": 2,
        "fields": {
            "content": "web platform for local unions<br>and progressive organizations"
        }
    },
    {
        "model": "wikis.wiki",
        "pk": 1,
        "fields": {
            "url": "home",
            "title": "Home",
            "content": "<p><strong>Welcome to the LibreOrganize Wiki.</strong><br />\r\nYou can create pages and navigate through them using the left navigation bar.</p>"
        }
    },
    {
        "model": "wikis.log",
        "pk": 1,
        "fields": {
            "wiki": 1,
            "content": "<p><strong>Welcome to the LibreOrganize Wiki.</strong><br />\r\nYou can create pages and navigate through them using the left navigation bar.</p>",
            "author": null,
            "date": "2020-01-01 00:00:00.000",
            "action": "Create"
        }
    }
]